; Engine configuration file.
; It's best edited using the editor UI and not directly,
; since the parameters that go here are not all obvious.
;
; Format:
;   [section] ; section goes between []
;   param=value ; assign values to parameters

config_version=5

[application]

config/name="TextureCrashMinimalRepro"
run/main_scene="res://Game.tscn"
config/features=PackedStringArray("4.1", "Forward Plus")
config/icon="res://icon.svg"
